Ptt Gossping (20190717-20190718)
…
## # A tibble: 1 x 2
##   doc_id text                                                              
##    <int> <chr>                                                             
## 1      1 l x            oy   2.    3.   ~

library(tidytext)

library(stringr)
tok99 = function(t) str_split(t,"[ ]{1,}")

td1 = unnest_tokens(text_df,word, text, token=tok99)

td1

## # A tibble: 193,591 x 2
##    doc_id word  
##     <int> <chr> 
##  1      1 l     
##  2      1 x     
##  3      1   
##  4      1   
##  5      1   
##  6      1 
##  7      1     
##  8      1     
##  9      1   
## 10      1   
## # ... with 193,581 more rows

td_count = count(td1,word, sort = TRUE)

td_count

## # A tibble: 38,578 x 2
##    word       n
##    <chr>  <int>
##  1     1198
##  2     1161
##  3      812
##  4    765
##  5      699
##  6      547
##  7      516
##  8    475
##  9        445
## 10        429
## # ... with 38,568 more rows
…
#  TF-IDF

td2 = td1 %>%
count(doc_id,word,sort=T) %>%
ungroup() %>%
bind_tf_idf(word,doc_id, n)

td2

## # A tibble: 38,578 x 6
##    doc_id word       n      tf   idf tf_idf
##     <int> <chr>  <int>   <dbl> <dbl>  <dbl>
##  1      1     1198 0.00619     0      0
##  2      1     1161 0.00600     0      0
##  3      1      812 0.00419     0      0
##  4      1    765 0.00395     0      0
##  5      1      699 0.00361     0      0
##  6      1      547 0.00283     0      0
##  7      1      516 0.00267     0      0
##  8      1    475 0.00245     0      0
##  9      1        445 0.00230     0      0
## 10      1        429 0.00222     0      0
## # ... with 38,568 more rows

td_tfidf = arrange(td2,desc(tf_idf))

td_tfidf

## # A tibble: 38,578 x 6
##    doc_id word       n      tf   idf tf_idf
##     <int> <chr>  <int>   <dbl> <dbl>  <dbl>
##  1      1     1198 0.00619     0      0
##  2      1     1161 0.00600     0      0
##  3      1      812 0.00419     0      0
##  4      1    765 0.00395     0      0
##  5      1      699 0.00361     0      0
##  6      1      547 0.00283     0      0
##  7      1      516 0.00267     0      0
##  8      1    475 0.00245     0      0
##  9      1        445 0.00230     0      0
## 10      1        429 0.00222     0      0
## # ... with 38,568 more rows
